GLPSOL: GLPK LP/MIP Solver, v4.52
Parameter(s) specified in the command line:
 -m pmaxsat.mod -d parsed_data/san400_0.5_1.clq.wcnf.dat --tmlim 3600
Reading model section from pmaxsat.mod...
pmaxsat.mod:28: warning: final NL missing before end of file
28 lines were read
Reading data section from parsed_data/san400_0.5_1.clq.wcnf.dat...
parsed_data/san400_0.5_1.clq.wcnf.dat:40305: warning: final NL missing before end of file
40305 lines were read
Generating c...
Generating d...
Generating e...
Generating soft...
Model has been successfully generated
GLPK Integer Optimizer, v4.52
40302 rows, 40700 columns, 160800 non-zeros
40700 integer variables, all of which are binary
Preprocessing...
40300 hidden packing inequaliti(es) were detected
40300 rows, 800 columns, 80600 non-zeros
800 integer variables, all of which are binary
Scaling...
 A: min|aij| =  1.000e+00  max|aij| =  1.000e+00  ratio =  1.000e+00
Problem data seem to be well scaled
Constructing initial basis...
Size of triangular part is 40300
Solving LP relaxation...
GLPK Simplex Optimizer, v4.52
40300 rows, 800 columns, 80600 non-zeros
      0: obj =   0.000000000e+00  infeas =  3.990e+04 (0)
    500: obj =   0.000000000e+00  infeas =  2.904e+04 (0)
   1000: obj =   0.000000000e+00  infeas =  2.655e+04 (0)
   1500: obj =   0.000000000e+00  infeas =  1.774e+04 (0)
   2000: obj =   0.000000000e+00  infeas =  1.774e+04 (0)
   2500: obj =   0.000000000e+00  infeas =  1.546e+04 (0)
   3000: obj =   0.000000000e+00  infeas =  1.232e+04 (0)
   3500: obj =   0.000000000e+00  infeas =  1.084e+04 (0)
   4000: obj =   0.000000000e+00  infeas =  1.084e+04 (0)
   4500: obj =   0.000000000e+00  infeas =  1.084e+04 (0)
   5000: obj =   0.000000000e+00  infeas =  1.084e+04 (0)
   5500: obj =   0.000000000e+00  infeas =  1.074e+04 (0)
   6000: obj =   0.000000000e+00  infeas =  8.811e+03 (0)
   6500: obj =   0.000000000e+00  infeas =  5.116e+03 (0)
   7000: obj =   0.000000000e+00  infeas =  5.116e+03 (0)
   7500: obj =   0.000000000e+00  infeas =  5.116e+03 (0)
   8000: obj =   0.000000000e+00  infeas =  5.116e+03 (0)
   8500: obj =   0.000000000e+00  infeas =  5.116e+03 (0)
   9000: obj =   0.000000000e+00  infeas =  5.116e+03 (0)
   9500: obj =   0.000000000e+00  infeas =  5.116e+03 (0)
  10000: obj =   0.000000000e+00  infeas =  5.116e+03 (0)
  10500: obj =   0.000000000e+00  infeas =  5.116e+03 (0)
  11000: obj =   0.000000000e+00  infeas =  5.116e+03 (0)
  11500: obj =   0.000000000e+00  infeas =  5.116e+03 (0)
  12000: obj =   0.000000000e+00  infeas =  5.116e+03 (0)
  12500: obj =   0.000000000e+00  infeas =  5.116e+03 (0)
  13000: obj =   0.000000000e+00  infeas =  5.116e+03 (0)
  13500: obj =   0.000000000e+00  infeas =  5.116e+03 (0)
  14000: obj =   0.000000000e+00  infeas =  5.116e+03 (0)
  14500: obj =   0.000000000e+00  infeas =  5.116e+03 (0)
  15000: obj =   0.000000000e+00  infeas =  4.950e+03 (0)
  15500: obj =   0.000000000e+00  infeas =  4.950e+03 (0)
  16000: obj =   0.000000000e+00  infeas =  4.950e+03 (0)
  16500: obj =   0.000000000e+00  infeas =  4.950e+03 (0)
  17000: obj =   0.000000000e+00  infeas =  4.950e+03 (0)
  17500: obj =   0.000000000e+00  infeas =  4.950e+03 (0)
  18000: obj =   0.000000000e+00  infeas =  4.950e+03 (0)
  18500: obj =   0.000000000e+00  infeas =  4.636e+03 (0)
  19000: obj =   0.000000000e+00  infeas =  4.636e+03 (0)
  19500: obj =   0.000000000e+00  infeas =  4.636e+03 (0)
  20000: obj =   0.000000000e+00  infeas =  4.636e+03 (0)
  20500: obj =   0.000000000e+00  infeas =  4.636e+03 (0)
  21000: obj =   0.000000000e+00  infeas =  4.636e+03 (0)
  21500: obj =   0.000000000e+00  infeas =  4.636e+03 (0)
  22000: obj =   0.000000000e+00  infeas =  4.636e+03 (0)
  22500: obj =   0.000000000e+00  infeas =  4.636e+03 (0)
  23000: obj =   0.000000000e+00  infeas =  4.636e+03 (0)
  23500: obj =   0.000000000e+00  infeas =  4.636e+03 (0)
  24000: obj =   0.000000000e+00  infeas =  4.636e+03 (0)
  24500: obj =   0.000000000e+00  infeas =  4.636e+03 (0)
  25000: obj =   0.000000000e+00  infeas =  4.636e+03 (0)
  25500: obj =   0.000000000e+00  infeas =  4.636e+03 (0)
  26000: obj =   0.000000000e+00  infeas =  4.636e+03 (0)
  26500: obj =   0.000000000e+00  infeas =  4.636e+03 (0)
  27000: obj =   0.000000000e+00  infeas =  1.866e+03 (0)
  27500: obj =   0.000000000e+00  infeas =  1.118e+03 (0)
  28000: obj =   0.000000000e+00  infeas =  1.118e+03 (0)
  28500: obj =   0.000000000e+00  infeas =  1.118e+03 (0)
  29000: obj =   0.000000000e+00  infeas =  1.118e+03 (0)
  29500: obj =   0.000000000e+00  infeas =  1.118e+03 (0)
  30000: obj =   0.000000000e+00  infeas =  1.118e+03 (0)
  30500: obj =   0.000000000e+00  infeas =  1.118e+03 (0)
  31000: obj =   0.000000000e+00  infeas =  1.118e+03 (0)
  31500: obj =   0.000000000e+00  infeas =  1.118e+03 (0)
  32000: obj =   0.000000000e+00  infeas =  1.118e+03 (0)
  32500: obj =   0.000000000e+00  infeas =  1.118e+03 (0)
  33000: obj =   0.000000000e+00  infeas =  1.118e+03 (0)
  33500: obj =   0.000000000e+00  infeas =  1.012e+03 (0)
  34000: obj =   0.000000000e+00  infeas =  1.012e+03 (0)
  34500: obj =   0.000000000e+00  infeas =  1.012e+03 (0)
  35000: obj =   0.000000000e+00  infeas =  1.012e+03 (0)
  35500: obj =   0.000000000e+00  infeas =  8.150e+01 (0)
* 35992: obj =   0.000000000e+00  infeas =  0.000e+00 (0)
* 36000: obj =   4.000000000e+00  infeas =  0.000e+00 (0)
* 36500: obj =   1.375000000e+02  infeas =  0.000e+00 (0)
* 36815: obj =   2.000000000e+02  infeas =  0.000e+00 (0)
OPTIMAL LP SOLUTION FOUND
Integer optimization begins...
+ 36815: mip =     not found yet <=              +inf        (1; 0)
+ 36842: mip =     not found yet <=   1.990000000e+02        (7; 0)
+ 36863: mip =     not found yet <=   1.990000000e+02        (13; 0)
+ 36888: mip =     not found yet <=   1.990000000e+02        (19; 0)
+ 36915: mip =     not found yet <=   1.990000000e+02        (25; 0)
+ 36939: mip =     not found yet <=   1.990000000e+02        (31; 0)
+ 36963: mip =     not found yet <=   1.990000000e+02        (37; 0)
+ 36996: mip =     not found yet <=   1.990000000e+02        (43; 0)
+ 37021: mip =     not found yet <=   1.990000000e+02        (49; 0)
+ 37038: mip =     not found yet <=   1.990000000e+02        (55; 0)
+ 37059: mip =     not found yet <=   1.990000000e+02        (61; 0)
+ 37329: mip =     not found yet <=   1.990000000e+02        (68; 0)
Time used: 60.0 secs.  Memory used: 77.3 Mb.
+ 37368: mip =     not found yet <=   1.990000000e+02        (77; 0)
+ 37465: mip =     not found yet <=   1.990000000e+02        (89; 0)
+ 37503: mip =     not found yet <=   1.990000000e+02        (103; 0)
+ 37574: mip =     not found yet <=   1.990000000e+02        (122; 0)
+ 37622: >>>>>   6.000000000e+00 <=   1.990000000e+02        (134; 0)
+ 37958: mip =   6.000000000e+00 <=   1.980000000e+02        (140; 1)
+ 37984: mip =   6.000000000e+00 <=   1.980000000e+02        (148; 1)
+ 38105: mip =   6.000000000e+00 <=   1.980000000e+02        (157; 1)
+ 38139: mip =   6.000000000e+00 <=   1.980000000e+02        (168; 1)
+ 38201: mip =   6.000000000e+00 <=   1.980000000e+02        (182; 1)
+ 38275: mip =   6.000000000e+00 <=   1.980000000e+02        (206; 1)
+ 38623: mip =   6.000000000e+00 <=   1.980000000e+02        (215; 2)
Time used: 120.1 secs.  Memory used: 80.1 Mb.
+ 38651: mip =   6.000000000e+00 <=   1.980000000e+02        (223; 2)
+ 38678: mip =   6.000000000e+00 <=   1.980000000e+02        (231; 2)
+ 38775: mip =   6.000000000e+00 <=   1.980000000e+02        (240; 2)
+ 38808: mip =   6.000000000e+00 <=   1.980000000e+02        (251; 2)
+ 38905: mip =   6.000000000e+00 <=   1.980000000e+02        (268; 2)
+ 39296: mip =   6.000000000e+00 <=   1.970000000e+02        (293; 3)
+ 39321: mip =   6.000000000e+00 <=   1.970000000e+02        (301; 3)
+ 39352: mip =   6.000000000e+00 <=   1.970000000e+02        (309; 3)
+ 39379: mip =   6.000000000e+00 <=   1.970000000e+02        (317; 3)
+ 39464: mip =   6.000000000e+00 <=   1.970000000e+02        (326; 3)
+ 39504: mip =   6.000000000e+00 <=   1.970000000e+02        (338; 3)
Time used: 180.5 secs.  Memory used: 81.6 Mb.
+ 39542: mip =   6.000000000e+00 <=   1.970000000e+02        (351; 3)
+ 39610: mip =   6.000000000e+00 <=   1.970000000e+02        (367; 3)
+ 39986: mip =   6.000000000e+00 <=   1.970000000e+02        (382; 4)
+ 40014: mip =   6.000000000e+00 <=   1.970000000e+02        (390; 4)
+ 40038: mip =   6.000000000e+00 <=   1.970000000e+02        (398; 4)
+ 40072: mip =   6.000000000e+00 <=   1.970000000e+02        (407; 4)
+ 40106: mip =   6.000000000e+00 <=   1.970000000e+02        (416; 4)
+ 40197: mip =   6.000000000e+00 <=   1.970000000e+02        (425; 4)
+ 40241: mip =   6.000000000e+00 <=   1.970000000e+02        (438; 4)
+ 40626: mip =   6.000000000e+00 <=   1.960000000e+02        (457; 5)
+ 40656: mip =   6.000000000e+00 <=   1.960000000e+02        (465; 5)
+ 40753: mip =   6.000000000e+00 <=   1.960000000e+02        (474; 5)
Time used: 240.7 secs.  Memory used: 84.1 Mb.
+ 40815: mip =   6.000000000e+00 <=   1.960000000e+02        (485; 5)
+ 40926: mip =   6.000000000e+00 <=   1.960000000e+02        (514; 5)
+ 41281: mip =   6.000000000e+00 <=   1.960000000e+02        (525; 6)
+ 41304: mip =   6.000000000e+00 <=   1.960000000e+02        (533; 6)
+ 41334: mip =   6.000000000e+00 <=   1.960000000e+02        (541; 6)
+ 41414: mip =   6.000000000e+00 <=   1.960000000e+02        (550; 6)
+ 41524: mip =   6.000000000e+00 <=   1.960000000e+02        (569; 6)
+ 41914: mip =   6.000000000e+00 <=   1.950000000e+02        (590; 7)
+ 41943: mip =   6.000000000e+00 <=   1.950000000e+02        (598; 7)
+ 41973: mip =   6.000000000e+00 <=   1.950000000e+02        (606; 7)
+ 41998: mip =   6.000000000e+00 <=   1.950000000e+02        (614; 7)
Time used: 300.7 secs.  Memory used: 86.5 Mb.
+ 42035: mip =   6.000000000e+00 <=   1.950000000e+02        (623; 7)
+ 42063: mip =   6.000000000e+00 <=   1.950000000e+02        (632; 7)
+ 42184: mip =   6.000000000e+00 <=   1.950000000e+02        (644; 7)
+ 42303: mip =   6.000000000e+00 <=   1.950000000e+02        (660; 7)
+ 42638: mip =   6.000000000e+00 <=   1.950000000e+02        (669; 8)
+ 42667: mip =   6.000000000e+00 <=   1.950000000e+02        (677; 8)
+ 42699: mip =   6.000000000e+00 <=   1.950000000e+02        (685; 8)
+ 42735: mip =   6.000000000e+00 <=   1.950000000e+02        (694; 8)
+ 42764: mip =   6.000000000e+00 <=   1.950000000e+02        (703; 8)
+ 42789: mip =   6.000000000e+00 <=   1.950000000e+02        (712; 8)
+ 42880: mip =   6.000000000e+00 <=   1.950000000e+02        (725; 8)
+ 42924: mip =   6.000000000e+00 <=   1.950000000e+02        (741; 8)
Time used: 360.8 secs.  Memory used: 87.9 Mb.
+ 42984: mip =   6.000000000e+00 <=   1.950000000e+02        (761; 8)
+ 43328: mip =   6.000000000e+00 <=   1.940000000e+02        (777; 9)
+ 43351: mip =   6.000000000e+00 <=   1.940000000e+02        (784; 9)
+ 43376: mip =   6.000000000e+00 <=   1.940000000e+02        (791; 9)
+ 43405: mip =   6.000000000e+00 <=   1.940000000e+02        (798; 9)
+ 43495: mip =   6.000000000e+00 <=   1.940000000e+02        (806; 9)
+ 43525: mip =   6.000000000e+00 <=   1.940000000e+02        (816; 9)
+ 43557: mip =   6.000000000e+00 <=   1.940000000e+02        (827; 9)
+ 43617: mip =   6.000000000e+00 <=   1.940000000e+02        (840; 9)
+ 43699: mip =   6.000000000e+00 <=   1.940000000e+02        (863; 9)
+ 43735: >>>>>   7.000000000e+00 <=   1.940000000e+02        (872; 9)
+ 44059: mip =   7.000000000e+00 <=   1.940000000e+02        (868; 30)
Time used: 421.2 secs.  Memory used: 90.2 Mb.
+ 44083: mip =   7.000000000e+00 <=   1.940000000e+02        (876; 30)
+ 44187: mip =   7.000000000e+00 <=   1.940000000e+02        (885; 30)
+ 44223: mip =   7.000000000e+00 <=   1.940000000e+02        (896; 30)
+ 44259: mip =   7.000000000e+00 <=   1.940000000e+02        (909; 30)
+ 44298: mip =   7.000000000e+00 <=   1.940000000e+02        (923; 30)
+ 44345: mip =   7.000000000e+00 <=   1.940000000e+02        (940; 30)
+ 44713: mip =   7.000000000e+00 <=   1.930000000e+02        (965; 31)
+ 44744: mip =   7.000000000e+00 <=   1.930000000e+02        (972; 31)
+ 44767: mip =   7.000000000e+00 <=   1.930000000e+02        (979; 31)
+ 44796: mip =   7.000000000e+00 <=   1.930000000e+02        (987; 31)
+ 44822: mip =   7.000000000e+00 <=   1.930000000e+02        (995; 31)
+ 44887: mip =   7.000000000e+00 <=   1.930000000e+02        (1003; 31)
Time used: 481.5 secs.  Memory used: 91.6 Mb.
+ 44976: mip =   7.000000000e+00 <=   1.930000000e+02        (1015; 31)
+ 45045: mip =   7.000000000e+00 <=   1.930000000e+02        (1035; 31)
+ 45424: mip =   7.000000000e+00 <=   1.930000000e+02        (1053; 32)
+ 45451: mip =   7.000000000e+00 <=   1.930000000e+02        (1061; 32)
+ 45491: mip =   7.000000000e+00 <=   1.930000000e+02        (1070; 32)
+ 45522: mip =   7.000000000e+00 <=   1.930000000e+02        (1079; 32)
+ 45559: mip =   7.000000000e+00 <=   1.930000000e+02        (1088; 32)
+ 45587: mip =   7.000000000e+00 <=   1.930000000e+02        (1098; 32)
+ 45623: mip =   7.000000000e+00 <=   1.930000000e+02        (1108; 32)
+ 45659: mip =   7.000000000e+00 <=   1.930000000e+02        (1119; 32)
+ 46109: mip =   7.000000000e+00 <=   1.920000000e+02        (1133; 33)
Time used: 541.8 secs.  Memory used: 93.9 Mb.
+ 46136: mip =   7.000000000e+00 <=   1.920000000e+02        (1141; 33)
+ 46161: mip =   7.000000000e+00 <=   1.920000000e+02        (1149; 33)
+ 46291: mip =   7.000000000e+00 <=   1.920000000e+02        (1160; 33)
+ 46381: mip =   7.000000000e+00 <=   1.920000000e+02        (1181; 33)
+ 46695: mip =   7.000000000e+00 <=   1.920000000e+02        (1198; 34)
+ 46721: mip =   7.000000000e+00 <=   1.920000000e+02        (1205; 34)
+ 46745: mip =   7.000000000e+00 <=   1.920000000e+02        (1212; 34)
+ 46775: mip =   7.000000000e+00 <=   1.920000000e+02        (1220; 34)
+ 46845: mip =   7.000000000e+00 <=   1.920000000e+02        (1228; 34)
+ 46874: mip =   7.000000000e+00 <=   1.920000000e+02        (1238; 34)
+ 46899: mip =   7.000000000e+00 <=   1.920000000e+02        (1248; 34)
+ 46956: mip =   7.000000000e+00 <=   1.920000000e+02        (1259; 34)
Time used: 602.1 secs.  Memory used: 95.3 Mb.
+ 46997: mip =   7.000000000e+00 <=   1.920000000e+02        (1274; 34)
+ 47395: mip =   7.000000000e+00 <=   1.910000000e+02        (1294; 35)
+ 47424: mip =   7.000000000e+00 <=   1.910000000e+02        (1302; 35)
+ 47457: mip =   7.000000000e+00 <=   1.910000000e+02        (1310; 35)
+ 47488: mip =   7.000000000e+00 <=   1.910000000e+02        (1318; 35)
+ 47517: mip =   7.000000000e+00 <=   1.910000000e+02        (1327; 35)
+ 47547: mip =   7.000000000e+00 <=   1.910000000e+02        (1336; 35)
+ 47645: mip =   7.000000000e+00 <=   1.910000000e+02        (1349; 35)
+ 47688: mip =   7.000000000e+00 <=   1.910000000e+02        (1364; 35)
+ 47763: mip =   7.000000000e+00 <=   1.910000000e+02        (1386; 35)
+ 48125: mip =   7.000000000e+00 <=   1.910000000e+02        (1400; 36)
Time used: 662.4 secs.  Memory used: 97.6 Mb.
+ 48152: mip =   7.000000000e+00 <=   1.910000000e+02        (1409; 36)
+ 48182: mip =   7.000000000e+00 <=   1.910000000e+02        (1418; 36)
+ 48266: mip =   7.000000000e+00 <=   1.910000000e+02        (1428; 36)
+ 48335: mip =   7.000000000e+00 <=   1.910000000e+02        (1446; 36)
+ 48733: mip =   7.000000000e+00 <=   1.900000000e+02        (1470; 37)
+ 48767: mip =   7.000000000e+00 <=   1.900000000e+02        (1478; 37)
+ 48794: mip =   7.000000000e+00 <=   1.900000000e+02        (1486; 37)
+ 48826: mip =   7.000000000e+00 <=   1.900000000e+02        (1494; 37)
+ 48951: mip =   7.000000000e+00 <=   1.900000000e+02        (1505; 37)
+ 49008: mip =   7.000000000e+00 <=   1.900000000e+02        (1522; 37)
+ 49352: mip =   7.000000000e+00 <=   1.900000000e+02        (1546; 38)
+ 49377: mip =   7.000000000e+00 <=   1.900000000e+02        (1553; 38)
Time used: 722.9 secs.  Memory used: 99.9 Mb.
+ 49402: mip =   7.000000000e+00 <=   1.900000000e+02        (1560; 38)
+ 49432: mip =   7.000000000e+00 <=   1.900000000e+02        (1568; 38)
+ 49458: mip =   7.000000000e+00 <=   1.900000000e+02        (1576; 38)
+ 49488: mip =   7.000000000e+00 <=   1.900000000e+02        (1584; 38)
+ 49522: mip =   7.000000000e+00 <=   1.900000000e+02        (1592; 38)
+ 49699: mip =   7.000000000e+00 <=   1.900000000e+02        (1603; 38)
+ 50077: mip =   7.000000000e+00 <=   1.890000000e+02        (1620; 39)
+ 50110: mip =   7.000000000e+00 <=   1.890000000e+02        (1628; 39)
+ 50142: mip =   7.000000000e+00 <=   1.890000000e+02        (1636; 39)
+ 50225: mip =   7.000000000e+00 <=   1.890000000e+02        (1645; 39)
+ 50313: mip =   7.000000000e+00 <=   1.890000000e+02        (1661; 39)
Time used: 783.2 secs.  Memory used: 102.2 Mb.
+ 50657: mip =   7.000000000e+00 <=   1.890000000e+02        (1680; 40)
+ 50682: mip =   7.000000000e+00 <=   1.890000000e+02        (1687; 40)
+ 50706: mip =   7.000000000e+00 <=   1.890000000e+02        (1694; 40)
+ 50788: mip =   7.000000000e+00 <=   1.890000000e+02        (1702; 40)
+ 50816: mip =   7.000000000e+00 <=   1.890000000e+02        (1711; 40)
+ 50842: mip =   7.000000000e+00 <=   1.890000000e+02        (1721; 40)
+ 50872: mip =   7.000000000e+00 <=   1.890000000e+02        (1732; 40)
+ 50907: mip =   7.000000000e+00 <=   1.890000000e+02        (1744; 40)
+ 51298: mip =   7.000000000e+00 <=   1.880000000e+02        (1770; 41)
+ 51324: mip =   7.000000000e+00 <=   1.880000000e+02        (1777; 41)
+ 51347: mip =   7.000000000e+00 <=   1.880000000e+02        (1784; 41)
+ 51374: mip =   7.000000000e+00 <=   1.880000000e+02        (1791; 41)
Time used: 843.6 secs.  Memory used: 103.5 Mb.
+ 51397: mip =   7.000000000e+00 <=   1.880000000e+02        (1799; 41)
+ 51490: mip =   7.000000000e+00 <=   1.880000000e+02        (1809; 41)
+ 51519: mip =   7.000000000e+00 <=   1.880000000e+02        (1819; 41)
+ 51549: mip =   7.000000000e+00 <=   1.880000000e+02        (1830; 41)
+ 51600: mip =   7.000000000e+00 <=   1.880000000e+02        (1842; 41)
+ 51977: mip =   7.000000000e+00 <=   1.880000000e+02        (1856; 42)
+ 52009: mip =   7.000000000e+00 <=   1.880000000e+02        (1864; 42)
+ 52040: mip =   7.000000000e+00 <=   1.880000000e+02        (1872; 42)
+ 52072: mip =   7.000000000e+00 <=   1.880000000e+02        (1881; 42)
+ 52107: mip =   7.000000000e+00 <=   1.880000000e+02        (1890; 42)
+ 52142: mip =   7.000000000e+00 <=   1.880000000e+02        (1900; 42)
Time used: 903.7 secs.  Memory used: 104.8 Mb.
+ 52290: mip =   7.000000000e+00 <=   1.880000000e+02        (1918; 42)
+ 52617: mip =   7.000000000e+00 <=   1.870000000e+02        (1939; 43)
+ 52643: mip =   7.000000000e+00 <=   1.870000000e+02        (1946; 43)
+ 52669: mip =   7.000000000e+00 <=   1.870000000e+02        (1954; 43)
+ 52701: mip =   7.000000000e+00 <=   1.870000000e+02        (1962; 43)
+ 52775: mip =   7.000000000e+00 <=   1.870000000e+02        (1970; 43)
+ 52803: mip =   7.000000000e+00 <=   1.870000000e+02        (1980; 43)
+ 52833: mip =   7.000000000e+00 <=   1.870000000e+02        (1991; 43)
+ 52864: mip =   7.000000000e+00 <=   1.870000000e+02        (2003; 43)
+ 52930: mip =   7.000000000e+00 <=   1.870000000e+02        (2018; 43)
+ 53271: mip =   7.000000000e+00 <=   1.870000000e+02        (2034; 44)
+ 53293: mip =   7.000000000e+00 <=   1.870000000e+02        (2041; 44)
Time used: 963.9 secs.  Memory used: 106.9 Mb.
+ 53329: mip =   7.000000000e+00 <=   1.870000000e+02        (2049; 44)
+ 53352: mip =   7.000000000e+00 <=   1.870000000e+02        (2057; 44)
+ 53433: mip =   7.000000000e+00 <=   1.870000000e+02        (2065; 44)
+ 53467: mip =   7.000000000e+00 <=   1.870000000e+02        (2075; 44)
+ 53542: mip =   7.000000000e+00 <=   1.870000000e+02        (2088; 44)
+ 53597: mip =   7.000000000e+00 <=   1.870000000e+02        (2107; 44)
+ 53947: mip =   7.000000000e+00 <=   1.860000000e+02        (2122; 45)
+ 53985: mip =   7.000000000e+00 <=   1.860000000e+02        (2130; 45)
+ 54075: mip =   7.000000000e+00 <=   1.860000000e+02        (2139; 45)
+ 54159: mip =   7.000000000e+00 <=   1.860000000e+02        (2153; 45)
+ 54500: mip =   7.000000000e+00 <=   1.860000000e+02        (2174; 46)
Time used: 1024.2 secs.  Memory used: 109.1 Mb.
+ 54523: mip =   7.000000000e+00 <=   1.860000000e+02        (2181; 46)
+ 54549: mip =   7.000000000e+00 <=   1.860000000e+02        (2188; 46)
+ 54570: mip =   7.000000000e+00 <=   1.860000000e+02        (2195; 46)
+ 54592: mip =   7.000000000e+00 <=   1.860000000e+02        (2203; 46)
+ 54616: mip =   7.000000000e+00 <=   1.860000000e+02        (2211; 46)
+ 54637: mip =   7.000000000e+00 <=   1.860000000e+02        (2219; 46)
+ 54672: mip =   7.000000000e+00 <=   1.860000000e+02        (2228; 46)
+ 54697: mip =   7.000000000e+00 <=   1.860000000e+02        (2237; 46)
+ 54773: mip =   7.000000000e+00 <=   1.860000000e+02        (2248; 46)
+ 54811: mip =   7.000000000e+00 <=   1.860000000e+02        (2261; 46)
+ 54871: mip =   7.000000000e+00 <=   1.860000000e+02        (2276; 46)
+ 55229: mip =   7.000000000e+00 <=   1.850000000e+02        (2296; 47)
Time used: 1084.7 secs.  Memory used: 110.3 Mb.
+ 55254: mip =   7.000000000e+00 <=   1.850000000e+02        (2303; 47)
+ 55277: mip =   7.000000000e+00 <=   1.850000000e+02        (2310; 47)
+ 55307: mip =   7.000000000e+00 <=   1.850000000e+02        (2318; 47)
+ 55334: mip =   7.000000000e+00 <=   1.850000000e+02        (2326; 47)
+ 55356: mip =   7.000000000e+00 <=   1.850000000e+02        (2334; 47)
+ 55579: mip =   7.000000000e+00 <=   1.850000000e+02        (2353; 47)
+ 55591: >>>>>   8.000000000e+00 <=   1.850000000e+02        (2358; 47)
+ 55882: mip =   8.000000000e+00 <=   1.850000000e+02        (2325; 126)
+ 55904: mip =   8.000000000e+00 <=   1.850000000e+02        (2332; 126)
+ 55990: mip =   8.000000000e+00 <=   1.850000000e+02        (2340; 126)
+ 56016: mip =   8.000000000e+00 <=   1.850000000e+02        (2349; 126)
+ 56047: mip =   8.000000000e+00 <=   1.850000000e+02        (2359; 126)
Time used: 1144.9 secs.  Memory used: 111.6 Mb.
+ 56095: mip =   8.000000000e+00 <=   1.850000000e+02        (2370; 126)
+ 56133: mip =   8.000000000e+00 <=   1.850000000e+02        (2384; 126)
+ 56527: mip =   8.000000000e+00 <=   1.840000000e+02        (2407; 127)
+ 56561: mip =   8.000000000e+00 <=   1.840000000e+02        (2415; 127)
+ 56659: mip =   8.000000000e+00 <=   1.840000000e+02        (2426; 127)
+ 57089: mip =   8.000000000e+00 <=   1.840000000e+02        (2444; 128)
+ 57176: mip =   8.000000000e+00 <=   1.840000000e+02        (2455; 128)
+ 57244: mip =   8.000000000e+00 <=   1.840000000e+02        (2470; 128)
+ 57312: mip =   8.000000000e+00 <=   1.840000000e+02        (2492; 128)
+ 57626: mip =   8.000000000e+00 <=   1.830000000e+02        (2506; 129)
+ 57651: mip =   8.000000000e+00 <=   1.830000000e+02        (2513; 129)
+ 57680: mip =   8.000000000e+00 <=   1.830000000e+02        (2521; 129)
Time used: 1205.6 secs.  Memory used: 114.8 Mb.
+ 57705: mip =   8.000000000e+00 <=   1.830000000e+02        (2529; 129)
+ 57778: mip =   8.000000000e+00 <=   1.830000000e+02        (2538; 129)
+ 57830: mip =   8.000000000e+00 <=   1.830000000e+02        (2549; 129)
+ 57872: mip =   8.000000000e+00 <=   1.830000000e+02        (2563; 129)
+ 57915: mip =   8.000000000e+00 <=   1.830000000e+02        (2579; 129)
+ 57995: mip =   8.000000000e+00 <=   1.830000000e+02        (2604; 129)
+ 58274: mip =   8.000000000e+00 <=   1.830000000e+02        (2610; 130)
+ 58302: mip =   8.000000000e+00 <=   1.830000000e+02        (2618; 130)
+ 58395: mip =   8.000000000e+00 <=   1.830000000e+02        (2627; 130)
+ 58456: mip =   8.000000000e+00 <=   1.830000000e+02        (2637; 130)
+ 58501: mip =   8.000000000e+00 <=   1.830000000e+02        (2650; 130)
Time used: 1265.9 secs.  Memory used: 116.1 Mb.
+ 58567: mip =   8.000000000e+00 <=   1.830000000e+02        (2667; 130)
+ 58901: mip =   8.000000000e+00 <=   1.820000000e+02        (2679; 131)
+ 58927: mip =   8.000000000e+00 <=   1.820000000e+02        (2687; 131)
+ 58952: mip =   8.000000000e+00 <=   1.820000000e+02        (2695; 131)
+ 58975: mip =   8.000000000e+00 <=   1.820000000e+02        (2704; 131)
+ 59010: mip =   8.000000000e+00 <=   1.820000000e+02        (2713; 131)
+ 59047: mip =   8.000000000e+00 <=   1.820000000e+02        (2723; 131)
+ 59070: mip =   8.000000000e+00 <=   1.820000000e+02        (2733; 131)
+ 59096: mip =   8.000000000e+00 <=   1.820000000e+02        (2744; 131)
+ 59147: mip =   8.000000000e+00 <=   1.820000000e+02        (2756; 131)
+ 59227: mip =   8.000000000e+00 <=   1.820000000e+02        (2770; 131)
+ 59599: mip =   8.000000000e+00 <=   1.820000000e+02        (2787; 132)
Time used: 1326.3 secs.  Memory used: 118.1 Mb.
+ 59627: mip =   8.000000000e+00 <=   1.820000000e+02        (2795; 132)
+ 59658: mip =   8.000000000e+00 <=   1.820000000e+02        (2804; 132)
+ 59692: mip =   8.000000000e+00 <=   1.820000000e+02        (2813; 132)
+ 59725: mip =   8.000000000e+00 <=   1.820000000e+02        (2822; 132)
+ 59823: mip =   8.000000000e+00 <=   1.820000000e+02        (2836; 132)
+ 59865: mip =   8.000000000e+00 <=   1.820000000e+02        (2852; 132)
+ 60205: mip =   8.000000000e+00 <=   1.810000000e+02        (2876; 133)
+ 60234: mip =   8.000000000e+00 <=   1.810000000e+02        (2883; 133)
+ 60265: mip =   8.000000000e+00 <=   1.810000000e+02        (2891; 133)
+ 60300: mip =   8.000000000e+00 <=   1.810000000e+02        (2899; 133)
+ 60383: mip =   8.000000000e+00 <=   1.810000000e+02        (2908; 133)
Time used: 1386.6 secs.  Memory used: 119.3 Mb.
+ 60411: mip =   8.000000000e+00 <=   1.810000000e+02        (2918; 133)
+ 60442: mip =   8.000000000e+00 <=   1.810000000e+02        (2929; 133)
+ 60473: mip =   8.000000000e+00 <=   1.810000000e+02        (2941; 133)
+ 60523: mip =   8.000000000e+00 <=   1.810000000e+02        (2955; 133)
+ 60851: mip =   8.000000000e+00 <=   1.810000000e+02        (2969; 134)
+ 60877: mip =   8.000000000e+00 <=   1.810000000e+02        (2977; 134)
+ 60907: mip =   8.000000000e+00 <=   1.810000000e+02        (2985; 134)
+ 60982: mip =   8.000000000e+00 <=   1.810000000e+02        (2994; 134)
+ 61016: mip =   8.000000000e+00 <=   1.810000000e+02        (3004; 134)
+ 61048: mip =   8.000000000e+00 <=   1.810000000e+02        (3015; 134)
+ 61083: mip =   8.000000000e+00 <=   1.810000000e+02        (3027; 134)
Time used: 1446.9 secs.  Memory used: 120.4 Mb.
+ 61118: mip =   8.000000000e+00 <=   1.810000000e+02        (3040; 134)
+ 61177: mip =   8.000000000e+00 <=   1.810000000e+02        (3057; 134)
+ 61256: mip =   8.000000000e+00 <=   1.810000000e+02        (3085; 134)
+ 61557: mip =   8.000000000e+00 <=   1.800000000e+02        (3093; 135)
+ 61586: mip =   8.000000000e+00 <=   1.800000000e+02        (3101; 135)
+ 61616: mip =   8.000000000e+00 <=   1.800000000e+02        (3110; 135)
+ 61716: mip =   8.000000000e+00 <=   1.800000000e+02        (3122; 135)
+ 61760: mip =   8.000000000e+00 <=   1.800000000e+02        (3136; 135)
+ 61829: mip =   8.000000000e+00 <=   1.800000000e+02        (3154; 135)
+ 62150: mip =   8.000000000e+00 <=   1.800000000e+02        (3173; 136)
+ 62238: mip =   8.000000000e+00 <=   1.800000000e+02        (3181; 136)
+ 62267: mip =   8.000000000e+00 <=   1.800000000e+02        (3191; 136)
Time used: 1507.3 secs.  Memory used: 122.6 Mb.
+ 62320: mip =   8.000000000e+00 <=   1.800000000e+02        (3202; 136)
+ 62358: mip =   8.000000000e+00 <=   1.800000000e+02        (3216; 136)
+ 62403: mip =   8.000000000e+00 <=   1.800000000e+02        (3232; 136)
+ 62765: mip =   8.000000000e+00 <=   1.790000000e+02        (3253; 137)
+ 62803: mip =   8.000000000e+00 <=   1.790000000e+02        (3262; 137)
+ 62831: mip =   8.000000000e+00 <=   1.790000000e+02        (3271; 137)
+ 62867: mip =   8.000000000e+00 <=   1.790000000e+02        (3281; 137)
+ 62899: mip =   8.000000000e+00 <=   1.790000000e+02        (3291; 137)
+ 62977: mip =   8.000000000e+00 <=   1.790000000e+02        (3304; 137)
+ 63035: mip =   8.000000000e+00 <=   1.790000000e+02        (3322; 137)
+ 63350: mip =   8.000000000e+00 <=   1.790000000e+02        (3340; 138)
Time used: 1567.9 secs.  Memory used: 124.5 Mb.
+ 63382: mip =   8.000000000e+00 <=   1.790000000e+02        (3347; 138)
+ 63406: mip =   8.000000000e+00 <=   1.790000000e+02        (3354; 138)
+ 63437: mip =   8.000000000e+00 <=   1.790000000e+02        (3362; 138)
+ 63468: mip =   8.000000000e+00 <=   1.790000000e+02        (3370; 138)
+ 63546: mip =   8.000000000e+00 <=   1.790000000e+02        (3379; 138)
+ 63585: mip =   8.000000000e+00 <=   1.790000000e+02        (3390; 138)
+ 63643: mip =   8.000000000e+00 <=   1.790000000e+02        (3403; 138)
+ 63689: mip =   8.000000000e+00 <=   1.790000000e+02        (3419; 138)
+ 64064: mip =   8.000000000e+00 <=   1.780000000e+02        (3445; 139)
+ 64098: mip =   8.000000000e+00 <=   1.780000000e+02        (3453; 139)
+ 64129: mip =   8.000000000e+00 <=   1.780000000e+02        (3462; 139)
Time used: 1628.0 secs.  Memory used: 125.6 Mb.
+ 64164: mip =   8.000000000e+00 <=   1.780000000e+02        (3471; 139)
+ 64199: mip =   8.000000000e+00 <=   1.780000000e+02        (3480; 139)
+ 64233: mip =   8.000000000e+00 <=   1.780000000e+02        (3490; 139)
+ 64348: mip =   8.000000000e+00 <=   1.780000000e+02        (3503; 139)
+ 64678: mip =   8.000000000e+00 <=   1.780000000e+02        (3524; 140)
+ 64704: mip =   8.000000000e+00 <=   1.780000000e+02        (3531; 140)
+ 64732: mip =   8.000000000e+00 <=   1.780000000e+02        (3539; 140)
+ 64761: mip =   8.000000000e+00 <=   1.780000000e+02        (3547; 140)
+ 64845: mip =   8.000000000e+00 <=   1.780000000e+02        (3557; 140)
+ 64883: mip =   8.000000000e+00 <=   1.780000000e+02        (3567; 140)
+ 64915: mip =   8.000000000e+00 <=   1.780000000e+02        (3578; 140)
+ 64950: mip =   8.000000000e+00 <=   1.780000000e+02        (3591; 140)
Time used: 1688.4 secs.  Memory used: 126.8 Mb.
+ 65002: mip =   8.000000000e+00 <=   1.780000000e+02        (3606; 140)
+ 65318: mip =   8.000000000e+00 <=   1.770000000e+02        (3620; 141)
+ 65523: mip =   8.000000000e+00 <=   1.770000000e+02        (3629; 141)
+ 65881: mip =   8.000000000e+00 <=   1.770000000e+02        (3638; 142)
+ 65907: mip =   8.000000000e+00 <=   1.770000000e+02        (3647; 142)
+ 65942: mip =   8.000000000e+00 <=   1.770000000e+02        (3656; 142)
+ 65980: mip =   8.000000000e+00 <=   1.770000000e+02        (3666; 142)
+ 66014: mip =   8.000000000e+00 <=   1.770000000e+02        (3676; 142)
+ 66092: mip =   8.000000000e+00 <=   1.770000000e+02        (3690; 142)
+ 66138: mip =   8.000000000e+00 <=   1.770000000e+02        (3707; 142)
+ 66496: mip =   8.000000000e+00 <=   1.760000000e+02        (3732; 143)
Time used: 1748.6 secs.  Memory used: 129.7 Mb.
+ 66523: mip =   8.000000000e+00 <=   1.760000000e+02        (3740; 143)
+ 66555: mip =   8.000000000e+00 <=   1.760000000e+02        (3749; 143)
+ 66583: mip =   8.000000000e+00 <=   1.760000000e+02        (3758; 143)
+ 66622: mip =   8.000000000e+00 <=   1.760000000e+02        (3768; 143)
+ 66651: mip =   8.000000000e+00 <=   1.760000000e+02        (3778; 143)
+ 66775: mip =   8.000000000e+00 <=   1.760000000e+02        (3793; 143)
+ 67093: mip =   8.000000000e+00 <=   1.760000000e+02        (3814; 144)
+ 67124: mip =   8.000000000e+00 <=   1.760000000e+02        (3822; 144)
+ 67153: mip =   8.000000000e+00 <=   1.760000000e+02        (3830; 144)
+ 67184: mip =   8.000000000e+00 <=   1.760000000e+02        (3838; 144)
+ 67206: mip =   8.000000000e+00 <=   1.760000000e+02        (3846; 144)
+ 67240: mip =   8.000000000e+00 <=   1.760000000e+02        (3855; 144)
Time used: 1808.7 secs.  Memory used: 130.8 Mb.
+ 67269: mip =   8.000000000e+00 <=   1.760000000e+02        (3864; 144)
+ 67294: mip =   8.000000000e+00 <=   1.760000000e+02        (3873; 144)
+ 67361: mip =   8.000000000e+00 <=   1.760000000e+02        (3884; 144)
+ 67400: mip =   8.000000000e+00 <=   1.760000000e+02        (3897; 144)
+ 67750: mip =   8.000000000e+00 <=   1.750000000e+02        (3918; 145)
+ 67782: mip =   8.000000000e+00 <=   1.750000000e+02        (3926; 145)
+ 67808: mip =   8.000000000e+00 <=   1.750000000e+02        (3934; 145)
+ 67834: mip =   8.000000000e+00 <=   1.750000000e+02        (3942; 145)
+ 67859: mip =   8.000000000e+00 <=   1.750000000e+02        (3950; 145)
+ 67892: mip =   8.000000000e+00 <=   1.750000000e+02        (3959; 145)
+ 67924: mip =   8.000000000e+00 <=   1.750000000e+02        (3968; 145)
Time used: 1869.0 secs.  Memory used: 131.9 Mb.
+ 67950: mip =   8.000000000e+00 <=   1.750000000e+02        (3977; 145)
+ 68021: mip =   8.000000000e+00 <=   1.750000000e+02        (3988; 145)
+ 68100: mip =   8.000000000e+00 <=   1.750000000e+02        (4005; 145)
+ 68419: mip =   8.000000000e+00 <=   1.750000000e+02        (4015; 146)
+ 68461: mip =   8.000000000e+00 <=   1.750000000e+02        (4024; 146)
+ 68599: mip =   8.000000000e+00 <=   1.750000000e+02        (4035; 146)
+ 68651: mip =   8.000000000e+00 <=   1.750000000e+02        (4054; 146)
+ 68990: mip =   8.000000000e+00 <=   1.740000000e+02        (4073; 147)
+ 69015: mip =   8.000000000e+00 <=   1.740000000e+02        (4080; 147)
+ 69037: mip =   8.000000000e+00 <=   1.740000000e+02        (4088; 147)
+ 69125: mip =   8.000000000e+00 <=   1.740000000e+02        (4097; 147)
Time used: 1929.1 secs.  Memory used: 133.9 Mb.
+ 69151: mip =   8.000000000e+00 <=   1.740000000e+02        (4107; 147)
+ 69231: mip =   8.000000000e+00 <=   1.740000000e+02        (4120; 147)
+ 69552: mip =   8.000000000e+00 <=   1.740000000e+02        (4142; 148)
+ 69585: mip =   8.000000000e+00 <=   1.740000000e+02        (4150; 148)
+ 69613: mip =   8.000000000e+00 <=   1.740000000e+02        (4158; 148)
+ 69637: mip =   8.000000000e+00 <=   1.740000000e+02        (4166; 148)
+ 69702: mip =   8.000000000e+00 <=   1.740000000e+02        (4175; 148)
+ 69732: mip =   8.000000000e+00 <=   1.740000000e+02        (4185; 148)
+ 69784: mip =   8.000000000e+00 <=   1.740000000e+02        (4198; 148)
+ 69824: mip =   8.000000000e+00 <=   1.740000000e+02        (4213; 148)
+ 69905: mip =   8.000000000e+00 <=   1.740000000e+02        (4240; 148)
+ 70196: mip =   8.000000000e+00 <=   1.740000000e+02        (4252; 149)
Time used: 1989.2 secs.  Memory used: 135.8 Mb.
+ 70224: mip =   8.000000000e+00 <=   1.740000000e+02        (4260; 149)
+ 70252: mip =   8.000000000e+00 <=   1.740000000e+02        (4268; 149)
+ 70274: mip =   8.000000000e+00 <=   1.740000000e+02        (4276; 149)
+ 70307: mip =   8.000000000e+00 <=   1.740000000e+02        (4285; 149)
+ 70333: mip =   8.000000000e+00 <=   1.740000000e+02        (4294; 149)
+ 70361: mip =   8.000000000e+00 <=   1.740000000e+02        (4304; 149)
+ 70428: mip =   8.000000000e+00 <=   1.740000000e+02        (4315; 149)
+ 70465: mip =   8.000000000e+00 <=   1.740000000e+02        (4329; 149)
+ 70529: mip =   8.000000000e+00 <=   1.740000000e+02        (4348; 149)
+ 70821: mip =   8.000000000e+00 <=   1.730000000e+02        (4371; 150)
+ 70849: mip =   8.000000000e+00 <=   1.730000000e+02        (4379; 150)
Time used: 2049.4 secs.  Memory used: 136.8 Mb.
+ 70938: mip =   8.000000000e+00 <=   1.730000000e+02        (4387; 150)
+ 70965: mip =   8.000000000e+00 <=   1.730000000e+02        (4397; 150)
+ 71026: mip =   8.000000000e+00 <=   1.730000000e+02        (4408; 150)
+ 71116: mip =   8.000000000e+00 <=   1.730000000e+02        (4428; 150)
+ 71418: mip =   8.000000000e+00 <=   1.730000000e+02        (4442; 151)
+ 71447: mip =   8.000000000e+00 <=   1.730000000e+02        (4450; 151)
+ 71474: mip =   8.000000000e+00 <=   1.730000000e+02        (4459; 151)
+ 71583: mip =   8.000000000e+00 <=   1.730000000e+02        (4470; 151)
+ 71650: mip =   8.000000000e+00 <=   1.730000000e+02        (4486; 151)
+ 71972: mip =   8.000000000e+00 <=   1.720000000e+02        (4509; 152)
+ 72002: mip =   8.000000000e+00 <=   1.720000000e+02        (4517; 152)
+ 72484: mip =   8.000000000e+00 <=   1.720000000e+02        (4527; 153)
Time used: 2109.8 secs.  Memory used: 139.7 Mb.
+ 72509: mip =   8.000000000e+00 <=   1.720000000e+02        (4535; 153)
+ 72576: mip =   8.000000000e+00 <=   1.720000000e+02        (4543; 153)
+ 72635: mip =   8.000000000e+00 <=   1.720000000e+02        (4554; 153)
+ 72673: mip =   8.000000000e+00 <=   1.720000000e+02        (4568; 153)
+ 72742: mip =   8.000000000e+00 <=   1.720000000e+02        (4586; 153)
+ 73048: mip =   8.000000000e+00 <=   1.710000000e+02        (4599; 154)
+ 73175: mip =   8.000000000e+00 <=   1.710000000e+02        (4609; 154)
+ 73259: mip =   8.000000000e+00 <=   1.710000000e+02        (4628; 154)
+ 73547: mip =   8.000000000e+00 <=   1.710000000e+02        (4644; 155)
+ 73573: mip =   8.000000000e+00 <=   1.710000000e+02        (4652; 155)
+ 73602: mip =   8.000000000e+00 <=   1.710000000e+02        (4660; 155)
Time used: 2170.0 secs.  Memory used: 141.7 Mb.
+ 73630: mip =   8.000000000e+00 <=   1.710000000e+02        (4668; 155)
+ 73661: mip =   8.000000000e+00 <=   1.710000000e+02        (4677; 155)
+ 73687: mip =   8.000000000e+00 <=   1.710000000e+02        (4686; 155)
+ 73763: mip =   8.000000000e+00 <=   1.710000000e+02        (4695; 155)
+ 73804: mip =   8.000000000e+00 <=   1.710000000e+02        (4707; 155)
+ 73846: mip =   8.000000000e+00 <=   1.710000000e+02        (4721; 155)
+ 73935: mip =   8.000000000e+00 <=   1.710000000e+02        (4744; 155)
+ 74252: mip =   8.000000000e+00 <=   1.700000000e+02        (4756; 156)
+ 74288: mip =   8.000000000e+00 <=   1.700000000e+02        (4765; 156)
+ 74714: mip =   8.000000000e+00 <=   1.690000000e+02        (4772; 157)
+ 74745: mip =   8.000000000e+00 <=   1.690000000e+02        (4780; 157)
Time used: 2230.4 secs.  Memory used: 143.5 Mb.
+ 74778: mip =   8.000000000e+00 <=   1.690000000e+02        (4788; 157)
+ 74884: mip =   8.000000000e+00 <=   1.690000000e+02        (4798; 157)
+ 74916: mip =   8.000000000e+00 <=   1.690000000e+02        (4809; 157)
+ 74952: mip =   8.000000000e+00 <=   1.690000000e+02        (4820; 157)
+ 74991: mip =   8.000000000e+00 <=   1.690000000e+02        (4833; 157)
+ 75090: mip =   8.000000000e+00 <=   1.690000000e+02        (4854; 157)
+ 75389: mip =   8.000000000e+00 <=   1.690000000e+02        (4863; 158)
+ 75420: mip =   8.000000000e+00 <=   1.690000000e+02        (4872; 158)
+ 75449: mip =   8.000000000e+00 <=   1.690000000e+02        (4881; 158)
+ 75904: mip =   8.000000000e+00 <=   1.680000000e+02        (4896; 159)
+ 75943: mip =   8.000000000e+00 <=   1.680000000e+02        (4905; 159)
+ 75972: mip =   8.000000000e+00 <=   1.680000000e+02        (4914; 159)
Time used: 2290.8 secs.  Memory used: 145.4 Mb.
+ 76004: mip =   8.000000000e+00 <=   1.680000000e+02        (4923; 159)
+ 76045: mip =   8.000000000e+00 <=   1.680000000e+02        (4933; 159)
+ 76071: mip =   8.000000000e+00 <=   1.680000000e+02        (4943; 159)
+ 76109: mip =   8.000000000e+00 <=   1.680000000e+02        (4954; 159)
+ 76240: mip =   8.000000000e+00 <=   1.680000000e+02        (4967; 160)
+ 76510: mip =   8.000000000e+00 <=   1.680000000e+02        (4973; 160)
+ 76689: mip =   8.000000000e+00 <=   1.680000000e+02        (4983; 160)
+ 77023: mip =   8.000000000e+00 <=   1.670000000e+02        (5001; 161)
+ 77053: mip =   8.000000000e+00 <=   1.670000000e+02        (5010; 161)
+ 77497: mip =   8.000000000e+00 <=   1.670000000e+02        (5026; 162)
+ 77524: mip =   8.000000000e+00 <=   1.670000000e+02        (5034; 162)
Time used: 2350.9 secs.  Memory used: 148.2 Mb.
+ 77555: mip =   8.000000000e+00 <=   1.670000000e+02        (5042; 162)
+ 77587: mip =   8.000000000e+00 <=   1.670000000e+02        (5050; 162)
+ 77615: mip =   8.000000000e+00 <=   1.670000000e+02        (5059; 162)
+ 77637: mip =   8.000000000e+00 <=   1.670000000e+02        (5068; 162)
+ 77675: mip =   8.000000000e+00 <=   1.670000000e+02        (5078; 162)
+ 77707: mip =   8.000000000e+00 <=   1.670000000e+02        (5088; 162)
+ 77776: mip =   8.000000000e+00 <=   1.670000000e+02        (5100; 162)
+ 78096: mip =   8.000000000e+00 <=   1.670000000e+02        (5115; 163)
+ 78126: mip =   8.000000000e+00 <=   1.670000000e+02        (5123; 163)
+ 78154: mip =   8.000000000e+00 <=   1.670000000e+02        (5131; 163)
+ 78179: mip =   8.000000000e+00 <=   1.670000000e+02        (5139; 163)
Time used: 2410.9 secs.  Memory used: 150.1 Mb.
+ 78662: mip =   8.000000000e+00 <=   1.660000000e+02        (5153; 164)
+ 78695: mip =   8.000000000e+00 <=   1.660000000e+02        (5162; 164)
+ 78730: mip =   8.000000000e+00 <=   1.660000000e+02        (5171; 164)
+ 78820: mip =   8.000000000e+00 <=   1.660000000e+02        (5181; 164)
+ 78900: mip =   8.000000000e+00 <=   1.660000000e+02        (5198; 164)
+ 79193: mip =   8.000000000e+00 <=   1.660000000e+02        (5220; 165)
+ 79227: mip =   8.000000000e+00 <=   1.660000000e+02        (5228; 165)
+ 79313: mip =   8.000000000e+00 <=   1.660000000e+02        (5238; 165)
+ 79339: mip =   8.000000000e+00 <=   1.660000000e+02        (5249; 165)
+ 79373: mip =   8.000000000e+00 <=   1.660000000e+02        (5261; 165)
+ 79466: mip =   8.000000000e+00 <=   1.660000000e+02        (5277; 165)
+ 79754: mip =   8.000000000e+00 <=   1.650000000e+02        (5296; 166)
Time used: 2470.9 secs.  Memory used: 151.9 Mb.
+ 79878: mip =   8.000000000e+00 <=   1.650000000e+02        (5306; 166)
+ 79912: mip =   8.000000000e+00 <=   1.650000000e+02        (5319; 166)
+ 80013: mip =   8.000000000e+00 <=   1.650000000e+02        (5339; 167)
+ 80032: mip =   8.000000000e+00 <=   1.650000000e+02        (5345; 167)
+ 80057: mip =   8.000000000e+00 <=   1.650000000e+02        (5351; 167)
+ 80077: mip =   8.000000000e+00 <=   1.650000000e+02        (5357; 167)
+ 80096: mip =   8.000000000e+00 <=   1.650000000e+02        (5363; 167)
+ 80116: mip =   8.000000000e+00 <=   1.650000000e+02        (5369; 167)
+ 80346: mip =   8.000000000e+00 <=   1.650000000e+02        (5375; 167)
+ 80385: mip =   8.000000000e+00 <=   1.650000000e+02        (5385; 167)
+ 80423: mip =   8.000000000e+00 <=   1.650000000e+02        (5395; 167)
Time used: 2531.1 secs.  Memory used: 152.9 Mb.
+ 80455: mip =   8.000000000e+00 <=   1.650000000e+02        (5406; 167)
+ 80539: mip =   8.000000000e+00 <=   1.650000000e+02        (5421; 167)
+ 80622: mip =   8.000000000e+00 <=   1.650000000e+02        (5444; 167)
+ 80893: mip =   8.000000000e+00 <=   1.640000000e+02        (5453; 168)
+ 80919: mip =   8.000000000e+00 <=   1.640000000e+02        (5461; 168)
+ 80959: mip =   8.000000000e+00 <=   1.640000000e+02        (5469; 168)
+ 80986: mip =   8.000000000e+00 <=   1.640000000e+02        (5478; 168)
+ 81011: mip =   8.000000000e+00 <=   1.640000000e+02        (5487; 168)
+ 81032: mip =   8.000000000e+00 <=   1.640000000e+02        (5496; 168)
+ 81101: mip =   8.000000000e+00 <=   1.640000000e+02        (5507; 168)
+ 81182: mip =   8.000000000e+00 <=   1.640000000e+02        (5521; 168)
+ 81477: mip =   8.000000000e+00 <=   1.630000000e+02        (5536; 169)
Time used: 2591.4 secs.  Memory used: 154.6 Mb.
+ 81508: mip =   8.000000000e+00 <=   1.630000000e+02        (5544; 169)
+ 81592: mip =   8.000000000e+00 <=   1.630000000e+02        (5553; 169)
+ 81650: mip =   8.000000000e+00 <=   1.630000000e+02        (5565; 169)
+ 81748: mip =   8.000000000e+00 <=   1.630000000e+02        (5587; 169)
+ 82004: mip =   8.000000000e+00 <=   1.630000000e+02        (5594; 170)
+ 82040: mip =   8.000000000e+00 <=   1.630000000e+02        (5603; 170)
+ 82071: mip =   8.000000000e+00 <=   1.630000000e+02        (5613; 170)
+ 82100: mip =   8.000000000e+00 <=   1.630000000e+02        (5623; 170)
+ 82182: mip =   8.000000000e+00 <=   1.630000000e+02        (5637; 170)
+ 82235: mip =   8.000000000e+00 <=   1.630000000e+02        (5654; 170)
+ 82566: mip =   8.000000000e+00 <=   1.630000000e+02        (5668; 171)
Time used: 2651.8 secs.  Memory used: 156.4 Mb.
+ 82599: mip =   8.000000000e+00 <=   1.630000000e+02        (5677; 171)
+ 82632: mip =   8.000000000e+00 <=   1.630000000e+02        (5686; 171)
+ 82671: mip =   8.000000000e+00 <=   1.630000000e+02        (5696; 171)
+ 82722: mip =   8.000000000e+00 <=   1.630000000e+02        (5707; 171)
+ 82822: mip =   8.000000000e+00 <=   1.630000000e+02        (5721; 171)
+ 83149: mip =   8.000000000e+00 <=   1.620000000e+02        (5748; 172)
+ 83187: mip =   8.000000000e+00 <=   1.620000000e+02        (5757; 172)
+ 83222: mip =   8.000000000e+00 <=   1.620000000e+02        (5766; 172)
+ 83305: mip =   8.000000000e+00 <=   1.620000000e+02        (5776; 172)
+ 83389: mip =   8.000000000e+00 <=   1.620000000e+02        (5794; 172)
+ 83672: mip =   8.000000000e+00 <=   1.620000000e+02        (5818; 173)
+ 83704: mip =   8.000000000e+00 <=   1.620000000e+02        (5826; 173)
Time used: 2712.4 secs.  Memory used: 158.1 Mb.
+ 83735: mip =   8.000000000e+00 <=   1.620000000e+02        (5834; 173)
+ 83760: mip =   8.000000000e+00 <=   1.620000000e+02        (5843; 173)
+ 83785: mip =   8.000000000e+00 <=   1.620000000e+02        (5852; 173)
+ 83814: mip =   8.000000000e+00 <=   1.620000000e+02        (5861; 173)
+ 83880: mip =   8.000000000e+00 <=   1.620000000e+02        (5871; 173)
+ 83916: mip =   8.000000000e+00 <=   1.620000000e+02        (5884; 173)
+ 83961: mip =   8.000000000e+00 <=   1.620000000e+02        (5899; 173)
+ 84263: mip =   8.000000000e+00 <=   1.610000000e+02        (5919; 174)
+ 84290: mip =   8.000000000e+00 <=   1.610000000e+02        (5927; 174)
+ 84318: mip =   8.000000000e+00 <=   1.610000000e+02        (5935; 174)
+ 84390: mip =   8.000000000e+00 <=   1.610000000e+02        (5944; 174)
Time used: 2772.4 secs.  Memory used: 159.1 Mb.
+ 84425: mip =   8.000000000e+00 <=   1.610000000e+02        (5955; 174)
+ 84500: mip =   8.000000000e+00 <=   1.610000000e+02        (5971; 174)
+ 84807: mip =   8.000000000e+00 <=   1.600000000e+02        (5985; 175)
+ 85252: mip =   8.000000000e+00 <=   1.600000000e+02        (6001; 176)
+ 85278: mip =   8.000000000e+00 <=   1.600000000e+02        (6009; 176)
+ 85351: mip =   8.000000000e+00 <=   1.600000000e+02        (6018; 176)
+ 85416: mip =   8.000000000e+00 <=   1.600000000e+02        (6031; 176)
+ 85507: mip =   8.000000000e+00 <=   1.600000000e+02        (6055; 176)
+ 85795: mip =   8.000000000e+00 <=   1.590000000e+02        (6064; 177)
+ 85830: mip =   8.000000000e+00 <=   1.590000000e+02        (6073; 177)
+ 85990: mip =   8.000000000e+00 <=   1.590000000e+02        (6087; 177)
+ 86268: mip =   8.000000000e+00 <=   1.590000000e+02        (6098; 178)
Time used: 2832.7 secs.  Memory used: 162.4 Mb.
+ 86304: mip =   8.000000000e+00 <=   1.590000000e+02        (6106; 178)
+ 86336: mip =   8.000000000e+00 <=   1.590000000e+02        (6114; 178)
+ 86363: mip =   8.000000000e+00 <=   1.590000000e+02        (6123; 178)
+ 86424: mip =   8.000000000e+00 <=   1.590000000e+02        (6133; 178)
+ 86506: mip =   8.000000000e+00 <=   1.590000000e+02        (6148; 178)
+ 86787: mip =   8.000000000e+00 <=   1.580000000e+02        (6161; 179)
+ 86824: mip =   8.000000000e+00 <=   1.580000000e+02        (6170; 179)
+ 86861: mip =   8.000000000e+00 <=   1.580000000e+02        (6179; 179)
+ 86895: mip =   8.000000000e+00 <=   1.580000000e+02        (6188; 179)
+ 86928: mip =   8.000000000e+00 <=   1.580000000e+02        (6198; 179)
+ 87030: mip =   8.000000000e+00 <=   1.580000000e+02        (6211; 179)
Time used: 2892.7 secs.  Memory used: 163.4 Mb.
+ 87341: mip =   8.000000000e+00 <=   1.580000000e+02        (6232; 180)
+ 87377: mip =   8.000000000e+00 <=   1.580000000e+02        (6240; 180)
+ 87458: mip =   8.000000000e+00 <=   1.580000000e+02        (6250; 180)
+ 87492: mip =   8.000000000e+00 <=   1.580000000e+02        (6261; 180)
+ 87528: mip =   8.000000000e+00 <=   1.580000000e+02        (6273; 180)
+ 87591: mip =   8.000000000e+00 <=   1.580000000e+02        (6288; 180)
+ 87925: mip =   8.000000000e+00 <=   1.570000000e+02        (6313; 181)
+ 87960: mip =   8.000000000e+00 <=   1.570000000e+02        (6322; 181)
+ 87995: mip =   8.000000000e+00 <=   1.570000000e+02        (6332; 181)
+ 88024: mip =   8.000000000e+00 <=   1.570000000e+02        (6342; 181)
+ 88155: mip =   8.000000000e+00 <=   1.570000000e+02        (6361; 181)
+ 88422: mip =   8.000000000e+00 <=   1.570000000e+02        (6376; 182)
Time used: 2952.8 secs.  Memory used: 165.7 Mb.
+ 88495: mip =   8.000000000e+00 <=   1.570000000e+02        (6385; 182)
+ 88535: mip =   8.000000000e+00 <=   1.570000000e+02        (6396; 182)
+ 88593: mip =   8.000000000e+00 <=   1.570000000e+02        (6409; 182)
+ 88660: mip =   8.000000000e+00 <=   1.570000000e+02        (6427; 182)
+ 88930: mip =   8.000000000e+00 <=   1.560000000e+02        (6441; 183)
+ 88960: mip =   8.000000000e+00 <=   1.560000000e+02        (6449; 183)
+ 89001: mip =   8.000000000e+00 <=   1.560000000e+02        (6458; 183)
+ 89029: mip =   8.000000000e+00 <=   1.560000000e+02        (6467; 183)
+ 89098: mip =   8.000000000e+00 <=   1.560000000e+02        (6477; 183)
+ 89138: mip =   8.000000000e+00 <=   1.560000000e+02        (6490; 183)
+ 89459: mip =   8.000000000e+00 <=   1.560000000e+02        (6509; 184)
Time used: 3013.3 secs.  Memory used: 167.3 Mb.
+ 89491: mip =   8.000000000e+00 <=   1.560000000e+02        (6517; 184)
+ 89523: mip =   8.000000000e+00 <=   1.560000000e+02        (6525; 184)
+ 89547: mip =   8.000000000e+00 <=   1.560000000e+02        (6534; 184)
+ 89573: mip =   8.000000000e+00 <=   1.560000000e+02        (6543; 184)
+ 89599: mip =   8.000000000e+00 <=   1.560000000e+02        (6553; 184)
+ 89667: mip =   8.000000000e+00 <=   1.560000000e+02        (6564; 184)
+ 89703: mip =   8.000000000e+00 <=   1.560000000e+02        (6578; 184)
+ 89767: mip =   8.000000000e+00 <=   1.560000000e+02        (6596; 184)
+ 90031: mip =   8.000000000e+00 <=   1.560000000e+02        (6612; 185)
+ 90060: mip =   8.000000000e+00 <=   1.560000000e+02        (6620; 185)
+ 90093: mip =   8.000000000e+00 <=   1.560000000e+02        (6629; 185)
+ 90174: mip =   8.000000000e+00 <=   1.560000000e+02        (6640; 185)
Time used: 3073.6 secs.  Memory used: 168.2 Mb.
+ 90218: mip =   8.000000000e+00 <=   1.560000000e+02        (6652; 185)
+ 90255: mip =   8.000000000e+00 <=   1.560000000e+02        (6666; 185)
+ 90298: mip =   8.000000000e+00 <=   1.560000000e+02        (6682; 185)
+ 90627: mip =   8.000000000e+00 <=   1.550000000e+02        (6705; 186)
+ 90668: mip =   8.000000000e+00 <=   1.550000000e+02        (6714; 186)
+ 90766: mip =   8.000000000e+00 <=   1.550000000e+02        (6726; 186)
+ 90810: mip =   8.000000000e+00 <=   1.550000000e+02        (6741; 186)
+ 90861: mip =   8.000000000e+00 <=   1.550000000e+02        (6759; 186)
+ 91154: mip =   8.000000000e+00 <=   1.540000000e+02        (6782; 187)
+ 91185: mip =   8.000000000e+00 <=   1.540000000e+02        (6790; 187)
+ 91209: mip =   8.000000000e+00 <=   1.540000000e+02        (6798; 187)
Time used: 3134.1 secs.  Memory used: 169.8 Mb.
+ 91237: mip =   8.000000000e+00 <=   1.540000000e+02        (6807; 187)
+ 91262: mip =   8.000000000e+00 <=   1.540000000e+02        (6816; 187)
+ 91295: mip =   8.000000000e+00 <=   1.540000000e+02        (6826; 187)
+ 91328: mip =   8.000000000e+00 <=   1.540000000e+02        (6836; 187)
+ 91410: mip =   8.000000000e+00 <=   1.540000000e+02        (6850; 187)
+ 91485: mip =   8.000000000e+00 <=   1.540000000e+02        (6869; 187)
+ 91735: mip =   8.000000000e+00 <=   1.540000000e+02        (6880; 188)
+ 91766: mip =   8.000000000e+00 <=   1.540000000e+02        (6888; 188)
+ 91804: mip =   8.000000000e+00 <=   1.540000000e+02        (6897; 188)
+ 91835: mip =   8.000000000e+00 <=   1.540000000e+02        (6906; 188)
+ 91927: mip =   8.000000000e+00 <=   1.540000000e+02        (6917; 188)
+ 91966: mip =   8.000000000e+00 <=   1.540000000e+02        (6931; 188)
Time used: 3194.4 secs.  Memory used: 170.7 Mb.
+ 92024: mip =   8.000000000e+00 <=   1.540000000e+02        (6948; 188)
+ 92284: mip =   8.000000000e+00 <=   1.530000000e+02        (6961; 189)
+ 92324: mip =   8.000000000e+00 <=   1.530000000e+02        (6969; 189)
+ 92354: mip =   8.000000000e+00 <=   1.530000000e+02        (6977; 189)
+ 92387: mip =   8.000000000e+00 <=   1.530000000e+02        (6986; 189)
+ 92414: mip =   8.000000000e+00 <=   1.530000000e+02        (6995; 189)
+ 92441: mip =   8.000000000e+00 <=   1.530000000e+02        (7005; 189)
+ 92512: mip =   8.000000000e+00 <=   1.530000000e+02        (7017; 189)
+ 92823: mip =   8.000000000e+00 <=   1.530000000e+02        (7035; 190)
+ 92852: mip =   8.000000000e+00 <=   1.530000000e+02        (7044; 190)
+ 92888: mip =   8.000000000e+00 <=   1.530000000e+02        (7054; 190)
+ 92924: mip =   8.000000000e+00 <=   1.530000000e+02        (7065; 190)
Time used: 3254.8 secs.  Memory used: 172.2 Mb.
+ 92958: mip =   8.000000000e+00 <=   1.530000000e+02        (7076; 190)
+ 93001: mip =   8.000000000e+00 <=   1.530000000e+02        (7089; 190)
+ 93061: mip =   8.000000000e+00 <=   1.530000000e+02        (7104; 190)
+ 93358: mip =   8.000000000e+00 <=   1.530000000e+02        (7127; 191)
+ 93439: mip =   8.000000000e+00 <=   1.530000000e+02        (7136; 191)
+ 93469: mip =   8.000000000e+00 <=   1.530000000e+02        (7147; 191)
+ 93532: mip =   8.000000000e+00 <=   1.530000000e+02        (7160; 191)
+ 93601: mip =   8.000000000e+00 <=   1.530000000e+02        (7180; 191)
+ 93897: mip =   8.000000000e+00 <=   1.520000000e+02        (7191; 192)
+ 93939: mip =   8.000000000e+00 <=   1.520000000e+02        (7201; 192)
+ 94025: mip =   8.000000000e+00 <=   1.520000000e+02        (7214; 192)
Time used: 3314.8 secs.  Memory used: 173.8 Mb.
+ 94083: mip =   8.000000000e+00 <=   1.520000000e+02        (7231; 192)
+ 94366: mip =   8.000000000e+00 <=   1.520000000e+02        (7259; 193)
+ 94397: mip =   8.000000000e+00 <=   1.520000000e+02        (7267; 193)
+ 94432: mip =   8.000000000e+00 <=   1.520000000e+02        (7275; 193)
+ 94462: mip =   8.000000000e+00 <=   1.520000000e+02        (7284; 193)
+ 94497: mip =   8.000000000e+00 <=   1.520000000e+02        (7294; 193)
+ 94567: mip =   8.000000000e+00 <=   1.520000000e+02        (7306; 193)
+ 94658: mip =   8.000000000e+00 <=   1.520000000e+02        (7327; 193)
+ 94939: mip =   8.000000000e+00 <=   1.510000000e+02        (7338; 194)
+ 94973: mip =   8.000000000e+00 <=   1.510000000e+02        (7348; 194)
+ 95012: mip =   8.000000000e+00 <=   1.510000000e+02        (7358; 194)
+ 95052: mip =   8.000000000e+00 <=   1.510000000e+02        (7369; 194)
Time used: 3375.3 secs.  Memory used: 175.3 Mb.
+ 95091: mip =   8.000000000e+00 <=   1.510000000e+02        (7381; 194)
+ 95129: mip =   8.000000000e+00 <=   1.510000000e+02        (7394; 194)
+ 95203: mip =   8.000000000e+00 <=   1.510000000e+02        (7410; 194)
+ 95480: mip =   8.000000000e+00 <=   1.510000000e+02        (7433; 195)
+ 95518: mip =   8.000000000e+00 <=   1.510000000e+02        (7441; 195)
+ 95556: mip =   8.000000000e+00 <=   1.510000000e+02        (7450; 195)
+ 95582: mip =   8.000000000e+00 <=   1.510000000e+02        (7459; 195)
+ 95669: mip =   8.000000000e+00 <=   1.510000000e+02        (7471; 195)
+ 95706: mip =   8.000000000e+00 <=   1.510000000e+02        (7484; 195)
+ 95747: mip =   8.000000000e+00 <=   1.510000000e+02        (7499; 195)
+ 96071: mip =   8.000000000e+00 <=   1.500000000e+02        (7519; 196)
Time used: 3435.6 secs.  Memory used: 176.8 Mb.
+ 96109: mip =   8.000000000e+00 <=   1.500000000e+02        (7529; 196)
+ 96149: mip =   8.000000000e+00 <=   1.500000000e+02        (7539; 196)
+ 96181: mip =   8.000000000e+00 <=   1.500000000e+02        (7550; 196)
+ 96258: mip =   8.000000000e+00 <=   1.500000000e+02        (7564; 196)
+ 96315: mip =   8.000000000e+00 <=   1.500000000e+02        (7583; 196)
+ 96638: mip =   8.000000000e+00 <=   1.490000000e+02        (7606; 197)
+ 96680: mip =   8.000000000e+00 <=   1.490000000e+02        (7616; 197)
+ 96717: mip =   8.000000000e+00 <=   1.490000000e+02        (7627; 197)
+ 96747: mip =   8.000000000e+00 <=   1.490000000e+02        (7638; 197)
+ 96785: mip =   8.000000000e+00 <=   1.490000000e+02        (7650; 197)
+ 96827: mip =   8.000000000e+00 <=   1.490000000e+02        (7663; 197)
+ 96906: mip =   8.000000000e+00 <=   1.490000000e+02        (7681; 197)
Time used: 3495.8 secs.  Memory used: 177.6 Mb.
+ 97214: mip =   8.000000000e+00 <=   1.490000000e+02        (7707; 198)
+ 97250: mip =   8.000000000e+00 <=   1.490000000e+02        (7717; 198)
+ 97283: mip =   8.000000000e+00 <=   1.490000000e+02        (7728; 198)
+ 97318: mip =   8.000000000e+00 <=   1.490000000e+02        (7740; 198)
+ 97393: mip =   8.000000000e+00 <=   1.490000000e+02        (7755; 198)
+ 97668: mip =   8.000000000e+00 <=   1.490000000e+02        (7775; 199)
+ 97695: mip =   8.000000000e+00 <=   1.490000000e+02        (7783; 199)
+ 97781: mip =   8.000000000e+00 <=   1.490000000e+02        (7792; 199)
+ 97840: mip =   8.000000000e+00 <=   1.490000000e+02        (7805; 199)
+ 97883: mip =   8.000000000e+00 <=   1.490000000e+02        (7821; 199)
+ 98195: mip =   8.000000000e+00 <=   1.480000000e+02        (7841; 200)
Time used: 3556.3 secs.  Memory used: 179.8 Mb.
+ 98226: mip =   8.000000000e+00 <=   1.480000000e+02        (7851; 200)
+ 98313: mip =   8.000000000e+00 <=   1.480000000e+02        (7862; 200)
+ 98367: mip =   8.000000000e+00 <=   1.480000000e+02        (7878; 200)
+ 98690: mip =   8.000000000e+00 <=   1.480000000e+02        (7905; 201)
+ 98731: mip =   8.000000000e+00 <=   1.480000000e+02        (7915; 201)
+ 98773: mip =   8.000000000e+00 <=   1.480000000e+02        (7925; 201)
+ 98809: mip =   8.000000000e+00 <=   1.480000000e+02        (7936; 201)
+ 98852: mip =   8.000000000e+00 <=   1.480000000e+02        (7948; 201)
+ 98887: mip =   8.000000000e+00 <=   1.480000000e+02        (7959; 201)
TIME LIMIT EXCEEDED; SEARCH TERMINATED
Time used:   3652.4 secs
Memory used: 186.9 Mb (195973828 bytes)
39900 of 39900 hard clauses
8 of 400 soft clauses
Model has been successfully processed
